{
    "name": "Computer science - Master’s degree",
    "university": "Odessa State Environmental University",
    "image": "educations/odeku.png",
    "period": "2017 - 2018",
    "link": "https://odeku.edu.ua/"
}