{
    "name": "Pharmacists CRM system",
    "description": "Platform which provide clients with a single end-to-end solution for all business requirements from speaker nomination and contracting through program execution and closeout, financial and attendee reconciliation, reporting and analytics, aggregated spend, and transparency reporting.",
    "link": null,
    "start": 2017,
    "isPet": false,
    "icon": null,
    "features": [
        ".NET Framework",
        "Multitier acrchitecture",
        "MVC5/REST API",
        "MS SQL Server",
        "Entity Framework",
        "Contract sign system",
        "Multilevel access system",
        "Logistics calculation process"
    ]
}