{
    "name": "CornDaily",
    "description": "Когда нужно найти хороший фильм для просмотра. Кто-то ищет лучшие картинки на IMDB или Кинопоиске, кто-то не знает, что делать и смотрит первый попавшийся фильм. Мы собрали лучшие фильмы в одном месте, а также сделали возможность выбора нужного фильма с помощью Telegram-бота.",
    "link": "https://corndaily.com",
    "start": 2018,
    "isPet": true,
    "icon": "projects/corndaily/icon.png",
    "background": "projects/corndaily/background.png",
    "features": [
        ".NET Core",
        "Vue.js",
        "Multitier acrchitecture",
        "Telegram Bot",
        "Mail reminder",
        "MySQL"
    ]
}