{
    "name": "Государственные заявки",
    "description": "Оптимизация процессов подачи государственных заявок и мониторинга бюро. Управляйте всеми проектами регистрации, документами и их статусами в одном репозитории. Отслеживайте, управляйте и оценивайте влияние циркуляров и бюллетеней, влияющих на страховые продукты на базе бюро. Отслеживайте рабочий процесс, сроки и задания по всем активным проектам и заявкам.",
    "link": null,
    "start": 2020,
    "isPet": false,
    "icon": null,
    "features": [
        ".NET Framework/.Net Core",
        "Microservices architecture",
        "REST API",
        "Refit",
        "MS SQL Server",
        "Angular",
        "PrimeNG",
        "RabbitMQ",
        "Ocelot"
    ]
}